---
http_interactions:
- request:
    method: get
    uri: https://api.digitalocean.com/v2/images?page=1&per_page=20
    body:
      encoding: US-ASCII
      string: ''
    headers:
      Content-Type:
      - application/json
      Authorization:
      - Bearer FAKE_ACCESS_TOKEN
      User-Agent:
      - Faraday v0.9.0
      Accept-Encoding:
      - gzip;q=1.0,deflate;q=0.6,identity;q=0.3
      Accept:
      - "*/*"
  response:
    status:
      code: 200
      message: OK
    headers:
      Server:
      - cloudflare-nginx
      Date:
      - Sun, 16 Nov 2014 00:43:24 GMT
      Content-Type:
      - application/json; charset=utf-8
      Transfer-Encoding:
      - chunked
      Connection:
      - keep-alive
      Set-Cookie: _COOKIE_ID_
      Status:
      - 200 OK
      X-Frame-Options:
      - SAMEORIGIN
      X-Xss-Protection:
      - 1; mode=block
      X-Content-Type-Options:
      - nosniff
      Ratelimit-Limit:
      - '1200'
      Ratelimit-Remaining:
      - '1170'
      Ratelimit-Reset:
      - '1416100824'
      Cache-Control:
      - max-age=0, private, must-revalidate
      X-Request-Id:
      - dbebb2a8-0e72-4d53-99f7-19bb03f8f442
      X-Runtime:
      - '6.065914'
      Cf-Ray:
      - 189fa751b8cc0ec7-EWR
    body:
      encoding: UTF-8
      string: '{"images":[{"id":7992108,"name":"Debian test","distribution":"Debian","slug":null,"public":false,"regions":["nyc3","nyc3"],"created_at":"2014-11-16T00:42:00Z","min_disk_size":20},{"id":7111572,"name":"14.10
        x32","distribution":"Ubuntu","slug":"ubuntu-14-10-x32","public":true,"regions":["nyc1","ams1","sfo1","nyc2","ams2","sgp1","lon1","nyc3","ams3","nyc3"],"created_at":"2014-10-23T14:30:12Z","min_disk_size":20},{"id":6882384,"name":"444.5.0
        (beta)","distribution":"CoreOS","slug":"coreos-beta","public":true,"regions":["sfo1","nyc2","ams2","sgp1","lon1","nyc3","ams3","nyc3"],"created_at":"2014-10-16T17:43:33Z","min_disk_size":20},{"id":6886342,"name":"444.5.0
        (stable)","distribution":"CoreOS","slug":"coreos-stable","public":true,"regions":["sfo1","nyc2","ams2","sgp1","lon1","nyc3","ams3","nyc3"],"created_at":"2014-10-16T20:36:29Z","min_disk_size":20},{"id":7816452,"name":"494.0.0
        (alpha)","distribution":"CoreOS","slug":"coreos-alpha","public":true,"regions":["sfo1","ams2","sgp1","lon1","nyc3","ams3","nyc3"],"created_at":"2014-11-11T15:54:16Z","min_disk_size":20},{"id":6370882,"name":"20
        x64","distribution":"Fedora","slug":"fedora-20-x64","public":true,"regions":["nyc1","ams1","sfo1","nyc2","ams2","sgp1","lon1","nyc3","ams3","nyc3"],"created_at":"2014-09-26T15:29:01Z","min_disk_size":20},{"id":6370885,"name":"20
        x32","distribution":"Fedora","slug":"fedora-20-x32","public":true,"regions":["nyc1","ams1","sfo1","nyc2","ams2","sgp1","lon1","nyc3","ams3","nyc3"],"created_at":"2014-09-26T15:29:18Z","min_disk_size":20},{"id":6370968,"name":"19
        x64","distribution":"Fedora","slug":"fedora-19-x64","public":true,"regions":["nyc1","ams1","sfo1","nyc2","ams2","sgp1","lon1","nyc3","ams3","nyc3"],"created_at":"2014-09-26T15:33:05Z","min_disk_size":20},{"id":6370969,"name":"19
        x32","distribution":"Fedora","slug":"fedora-19-x32","public":true,"regions":["nyc1","ams1","sfo1","nyc2","ams2","sgp1","lon1","nyc3","ams3","nyc3"],"created_at":"2014-09-26T15:33:39Z","min_disk_size":20},{"id":6372105,"name":"6.5
        x32","distribution":"CentOS","slug":"centos-6-5-x32","public":true,"regions":["nyc1","ams1","sfo1","nyc2","ams2","sgp1","lon1","nyc3","ams3","nyc3"],"created_at":"2014-09-26T16:28:33Z","min_disk_size":20},{"id":6372108,"name":"6.5
        x64","distribution":"CentOS","slug":"centos-6-5-x64","public":true,"regions":["nyc1","ams1","sfo1","nyc2","ams2","sgp1","lon1","nyc3","ams3","nyc3"],"created_at":"2014-09-26T16:28:43Z","min_disk_size":20},{"id":6372321,"name":"5.10
        x64","distribution":"CentOS","slug":"centos-5-8-x64","public":true,"regions":["nyc1","ams1","sfo1","nyc2","ams2","sgp1","lon1","nyc3","ams3","nyc3"],"created_at":"2014-09-26T16:40:18Z","min_disk_size":20},{"id":6372425,"name":"5.10
        x32","distribution":"CentOS","slug":"centos-5-8-x32","public":true,"regions":["nyc1","ams1","sfo1","nyc2","ams2","sgp1","lon1","nyc3","ams3","nyc3"],"created_at":"2014-09-26T16:45:29Z","min_disk_size":20},{"id":6372526,"name":"7.0
        x64","distribution":"Debian","slug":"debian-7-0-x64","public":true,"regions":["nyc1","ams1","sfo1","nyc2","ams2","sgp1","lon1","nyc3","ams3","nyc3"],"created_at":"2014-09-26T16:52:46Z","min_disk_size":20},{"id":6372528,"name":"7.0
        x32","distribution":"Debian","slug":"debian-7-0-x32","public":true,"regions":["nyc1","ams1","sfo1","nyc2","ams2","sgp1","lon1","nyc3","ams3","nyc3"],"created_at":"2014-09-26T16:53:06Z","min_disk_size":20},{"id":6372581,"name":"6.0
        x64","distribution":"Debian","slug":"debian-6-0-x64","public":true,"regions":["nyc1","ams1","sfo1","nyc2","ams2","sgp1","lon1","nyc3","ams3","nyc3"],"created_at":"2014-09-26T16:56:00Z","min_disk_size":20},{"id":6372662,"name":"6.0
        x32","distribution":"Debian","slug":"debian-6-0-x32","public":true,"regions":["nyc1","ams1","sfo1","nyc2","ams2","sgp1","lon1","nyc3","ams3","nyc3"],"created_at":"2014-09-26T17:00:21Z","min_disk_size":20},{"id":6374124,"name":"10.04
        x64","distribution":"Ubuntu","slug":"ubuntu-10-04-x64","public":true,"regions":["nyc1","ams1","sfo1","nyc2","ams2","sgp1","lon1","nyc3","ams3","nyc3"],"created_at":"2014-09-26T18:16:06Z","min_disk_size":20},{"id":6374125,"name":"10.04
        x32","distribution":"Ubuntu","slug":"ubuntu-10-04-x32","public":true,"regions":["nyc1","ams1","sfo1","nyc2","ams2","sgp1","lon1","nyc3","ams3","nyc3"],"created_at":"2014-09-26T18:16:15Z","min_disk_size":20},{"id":6374128,"name":"12.04.5
        x64","distribution":"Ubuntu","slug":"ubuntu-12-04-x64","public":true,"regions":["nyc1","ams1","sfo1","nyc2","ams2","sgp1","lon1","nyc3","ams3","nyc3"],"created_at":"2014-09-26T18:16:53Z","min_disk_size":20}],"links":{"pages":{"last":"https://api.digitalocean.com/v2/images?page=2&per_page=20","next":"https://api.digitalocean.com/v2/images?page=2&per_page=20"}},"meta":{"total":39}}'
    http_version: 
  recorded_at: Sun, 16 Nov 2014 00:43:24 GMT
- request:
    method: get
    uri: https://api.digitalocean.com/v2/images?page=2&per_page=20
    body:
      encoding: US-ASCII
      string: ''
    headers:
      Content-Type:
      - application/json
      Authorization:
      - Bearer FAKE_ACCESS_TOKEN
      User-Agent:
      - Faraday v0.9.0
      Accept-Encoding:
      - gzip;q=1.0,deflate;q=0.6,identity;q=0.3
      Accept:
      - "*/*"
  response:
    status:
      code: 200
      message: OK
    headers:
      Server:
      - cloudflare-nginx
      Date:
      - Sun, 16 Nov 2014 00:43:31 GMT
      Content-Type:
      - application/json; charset=utf-8
      Transfer-Encoding:
      - chunked
      Connection:
      - keep-alive
      Set-Cookie: _COOKIE_ID_
      Status:
      - 200 OK
      X-Frame-Options:
      - SAMEORIGIN
      X-Xss-Protection:
      - 1; mode=block
      X-Content-Type-Options:
      - nosniff
      Ratelimit-Limit:
      - '1200'
      Ratelimit-Remaining:
      - '1169'
      Ratelimit-Reset:
      - '1416100824'
      Cache-Control:
      - max-age=0, private, must-revalidate
      X-Request-Id:
      - e6612789-4aa4-4732-a058-457278516a02
      X-Runtime:
      - '5.820618'
      Cf-Ray:
      - 189fa77a99960ecd-EWR
    body:
      encoding: UTF-8
      string: '{"images":[{"id":6374130,"name":"12.04.5 x32","distribution":"Ubuntu","slug":"ubuntu-12-04-x32","public":true,"regions":["nyc1","ams1","sfo1","nyc2","ams2","sgp1","lon1","nyc3","ams3","nyc3"],"created_at":"2014-09-26T18:17:23Z","min_disk_size":20},{"id":6918735,"name":"14.04
        x32","distribution":"Ubuntu","slug":"ubuntu-14-04-x32","public":true,"regions":["nyc1","ams1","sfo1","nyc2","ams2","sgp1","lon1","nyc3","ams3","nyc3"],"created_at":"2014-10-17T20:13:41Z","min_disk_size":20},{"id":6918990,"name":"14.04
        x64","distribution":"Ubuntu","slug":"ubuntu-14-04-x64","public":true,"regions":["nyc1","ams1","sfo1","nyc2","ams2","sgp1","lon1","nyc3","ams3","nyc3"],"created_at":"2014-10-17T20:24:33Z","min_disk_size":20},{"id":7053293,"name":"7.0
        x64","distribution":"CentOS","slug":"centos-7-0-x64","public":true,"regions":["nyc1","ams1","sfo1","nyc2","ams2","sgp1","lon1","nyc3","ams3","nyc3"],"created_at":"2014-10-21T21:51:45Z","min_disk_size":20},{"id":7111343,"name":"14.10
        x64","distribution":"Ubuntu","slug":"ubuntu-14-10-x64","public":true,"regions":["nyc1","ams1","sfo1","nyc2","ams2","sgp1","lon1","nyc3","ams3","nyc3"],"created_at":"2014-10-23T14:21:38Z","min_disk_size":20},{"id":6376601,"name":"Ruby
        on Rails on 14.04 (Nginx + Unicorn)","distribution":"Ubuntu","slug":"ruby-on-rails","public":true,"regions":["nyc1","ams1","sfo1","nyc2","ams2","sgp1","lon1","nyc3","ams3","nyc1"],"created_at":"2014-09-26T20:20:24Z","min_disk_size":20},{"id":6423475,"name":"WordPress
        on 14.04","distribution":"Ubuntu","slug":"wordpress","public":true,"regions":["nyc1","ams1","sfo1","nyc2","ams2","sgp1","lon1","nyc3","ams3","nyc1"],"created_at":"2014-09-28T21:34:48Z","min_disk_size":20},{"id":6734697,"name":"Django
        on 14.04","distribution":"Ubuntu","slug":"django","public":true,"regions":["nyc1","ams1","sfo1","nyc2","ams2","sgp1","lon1","nyc3","ams3","nyc3"],"created_at":"2014-10-10T18:34:55Z","min_disk_size":20},{"id":6884371,"name":"Magento
        1.9.0.1 on 14.04","distribution":"Ubuntu","slug":"magento","public":true,"regions":["nyc1","ams1","sfo1","nyc2","ams2","sgp1","lon1","nyc3","ams3","nyc3"],"created_at":"2014-10-16T19:14:18Z","min_disk_size":20},{"id":7284647,"name":"Ghost
        0.5.3 on 14.04","distribution":"Ubuntu","slug":"ghost","public":true,"regions":["nyc1","ams1","sfo1","nyc2","ams2","sgp1","lon1","nyc3","ams3","nyc3"],"created_at":"2014-10-28T19:34:10Z","min_disk_size":20},{"id":7354580,"name":"Docker
        1.3.1 on 14.04","distribution":"Ubuntu","slug":"docker","public":true,"regions":["nyc1","ams1","sfo1","nyc2","ams2","sgp1","lon1","nyc3","ams3","nyc3"],"created_at":"2014-10-30T18:12:32Z","min_disk_size":20},{"id":7518201,"name":"GitLab
        7.4.3 CE on 14.04","distribution":"Ubuntu","slug":"gitlab","public":true,"regions":["nyc1","ams1","sfo1","nyc2","ams2","sgp1","lon1","nyc3","ams3","nyc3"],"created_at":"2014-11-03T23:32:54Z","min_disk_size":20},{"id":6732690,"name":"LEMP
        on 14.04","distribution":"Ubuntu","slug":"lemp","public":true,"regions":["nyc1","ams1","sfo1","nyc2","ams2","sgp1","lon1","nyc3","ams3","nyc3"],"created_at":"2014-10-10T16:31:45Z","min_disk_size":20},{"id":6732691,"name":"LAMP
        on 14.04","distribution":"Ubuntu","slug":"lamp","public":true,"regions":["nyc1","ams1","sfo1","nyc2","ams2","sgp1","lon1","nyc3","ams3","nyc3"],"created_at":"2014-10-10T16:31:57Z","min_disk_size":20},{"id":6734341,"name":"node-v0.10.32
        on 14.04","distribution":"Ubuntu","slug":"node","public":true,"regions":["nyc1","ams1","sfo1","nyc2","ams2","sgp1","lon1","nyc3","ams3","nyc3"],"created_at":"2014-10-10T18:13:34Z","min_disk_size":20},{"id":6738037,"name":"Dokku
        v0.2.3 on 14.04 (w/ Docker 1.2.0)","distribution":"Ubuntu","slug":"dokku","public":true,"regions":["nyc1","ams1","sfo1","nyc2","ams2","sgp1","lon1","nyc3","ams3","nyc3"],"created_at":"2014-10-10T22:20:30Z","min_disk_size":20},{"id":6798184,"name":"MEAN
        on 14.04","distribution":"Ubuntu","slug":"mean","public":true,"regions":["nyc1","ams1","sfo1","nyc2","ams2","sgp1","lon1","nyc3","ams3","nyc3"],"created_at":"2014-10-13T15:13:39Z","min_disk_size":20},{"id":6854006,"name":"Drupal
        7.32 on 14.04","distribution":"Ubuntu","slug":"drupal","public":true,"regions":["nyc1","ams1","sfo1","nyc2","ams2","sgp1","lon1","nyc3","ams3","nyc3"],"created_at":"2014-10-15T21:17:06Z","min_disk_size":20},{"id":7572830,"name":"Redmine
        on 14.04","distribution":"Ubuntu","slug":"redmine","public":true,"regions":["nyc1","ams1","sfo1","nyc2","ams2","sgp1","lon1","nyc3","ams3","ams3"],"created_at":"2014-11-05T09:12:04Z","min_disk_size":20}],"links":{"pages":{"first":"https://api.digitalocean.com/v2/images?page=1&per_page=20","prev":"https://api.digitalocean.com/v2/images?page=1&per_page=20"}},"meta":{"total":39}}'
    http_version: 
  recorded_at: Sun, 16 Nov 2014 00:43:31 GMT
recorded_with: VCR 2.9.3
